…
``` r

## we can use our own colors
sample_df_clean = 
  sample_df %>% 
  dplyr::filter(cat_cpb != "intra") %>% 
  dplyr::mutate(cat_map = forcats::fct_na_value_to_level(cat_map, level = "Missing"),
                cat_map = forcats::fct_rev(cat_map),
                cat_cpb = factor(cat_cpb,
                                 levels = c("pre", "post"),
                                 labels = c("Pre-CPB", "Post-CPB")),
                time = time / 60) %>% 
  print()
#> # A tibble: 36,329 × 7
#>    id      time timestamp           cat_cpb val_map val_cvp cat_map 
#>    <chr>  <dbl> <dttm>              <fct>     <dbl>   <dbl> <fct>   
#>  1 1     0      2019-01-01 00:18:20 Pre-CPB    97.6  18.4   [65,Inf)
#>  2 1     0.0167 2019-01-01 00:19:20 Pre-CPB    73.6  13.6   [65,Inf)
#>  3 1     0.0333 2019-01-01 00:20:20 Pre-CPB    NA    12.8   Missing 
#>  4 1     0.05   2019-01-01 00:21:20 Pre-CPB    66.1  11.5   [65,Inf)
#>  5 1     0.0667 2019-01-01 00:22:20 Pre-CPB    61.6   3.55  [0,65)  
#>  6 1     0.0833 2019-01-01 00:23:20 Pre-CPB    99.7   4.31  [65,Inf)
#>  7 1     0.1    2019-01-01 00:24:20 Pre-CPB    87.8   9.37  [65,Inf)
#>  8 1     0.117  2019-01-01 00:25:20 Pre-CPB    91.0   0.968 [65,Inf)
#>  9 1     0.133  2019-01-01 00:26:20 Pre-CPB    99.0   1.86  [65,Inf)
#> 10 1     0.15   2019-01-01 00:27:20 Pre-CPB   113.   13.0   [65,Inf)
#> # ℹ 36,319 more rows
…
